그룹스터디 1
…
Tibble(2): Convert dataframe to tibble

my_iris <- as_data_frame(iris)
class(my_iris)

## [1] "tbl_df"     "tbl"        "data.frame"

my_iris

## # A tibble: 150 x 5
##    Sepal.Length Sepal.Width Petal.Length Petal.Width Species
##           <dbl>       <dbl>        <dbl>       <dbl>  <fctr>
##  1          5.1         3.5          1.4         0.2  setosa
##  2          4.9         3.0          1.4         0.2  setosa
##  3          4.7         3.2          1.3         0.2  setosa
##  4          4.6         3.1          1.5         0.2  setosa
##  5          5.0         3.6          1.4         0.2  setosa
##  6          5.4         3.9          1.7         0.4  setosa
##  7          4.6         3.4          1.4         0.3  setosa
##  8          5.0         3.4          1.5         0.2  setosa
##  9          4.4         2.9          1.4         0.2  setosa
## 10          4.9         3.1          1.5         0.1  setosa
## # ... with 140 more rows
…
## The following object is masked from 'package:purrr':
## 
##     transpose

# install.packages("nycflights13")
library(nycflights13)

이번에는 두개의 데이터를 합치는 일을 해보겠습니다.

flights

## # A tibble: 336,776 x 19
##     year month   day dep_time sched_dep_time dep_delay arr_time
##    <int> <int> <int>    <int>          <int>     <dbl>    <int>
##  1  2013     1     1      517            515         2      830
##  2  2013     1     1      533            529         4      850
##  3  2013     1     1      542            540         2      923
##  4  2013     1     1      544            545        -1     1004
##  5  2013     1     1      554            600        -6      812
##  6  2013     1     1      554            558        -4      740
##  7  2013     1     1      555            600        -5      913
##  8  2013     1     1      557            600        -3      709
##  9  2013     1     1      557            600        -3      838
## 10  2013     1     1      558            600        -2      753
## # ... with 336,766 more rows, and 12 more variables: sched_arr_time <int>,
## #   arr_delay <dbl>, carrier <chr>, flight <int>, tailnum <chr>,
## #   origin <chr>, dest <chr>, air_time <dbl>, distance <dbl>, hour <dbl>,
## #   minute <dbl>, time_hour <dttm>

planes

## # A tibble: 3,322 x 9
##    tailnum  year                    type     manufacturer     model
##      <chr> <int>                   <chr>            <chr>     <chr>
##  1  N10156  2004 Fixed wing multi engine          EMBRAER EMB-145XR
##  2  N102UW  1998 Fixed wing multi engine AIRBUS INDUSTRIE  A320-214
##  3  N103US  1999 Fixed wing multi engine AIRBUS INDUSTRIE  A320-214
##  4  N104UW  1999 Fixed wing multi engine AIRBUS INDUSTRIE  A320-214
##  5  N10575  2002 Fixed wing multi engine          EMBRAER EMB-145LR
##  6  N105UW  1999 Fixed wing multi engine AIRBUS INDUSTRIE  A320-214
##  7  N107US  1999 Fixed wing multi engine AIRBUS INDUSTRIE  A320-214
##  8  N108UW  1999 Fixed wing multi engine AIRBUS INDUSTRIE  A320-214
##  9  N109UW  1999 Fixed wing multi engine AIRBUS INDUSTRIE  A320-214
## 10  N110UW  1999 Fixed wing multi engine AIRBUS INDUSTRIE  A320-214
## # ... with 3,312 more rows, and 4 more variables: engines <int>,
## #   seats <int>, speed <int>, engine <chr>
…
